-- Merging decision tree log ---
manifest
ADDED from D:\AndroidProjects\DomoApp\app\src\main\AndroidManifest.xml:2:1-41:12
	package
		ADDED from D:\AndroidProjects\DomoApp\app\src\main\AndroidManifest.xml:3:5-34
		INJECTED from D:\AndroidProjects\DomoApp\app\src\main\AndroidManifest.xml
		INJECTED from D:\AndroidProjects\DomoApp\app\src\main\AndroidManifest.xml
	android:versionName
		INJECTED from D:\AndroidProjects\DomoApp\app\src\main\AndroidManifest.xml
		INJECTED from D:\AndroidProjects\DomoApp\app\src\main\AndroidManifest.xml
	xmlns:android
		ADDED from D:\AndroidProjects\DomoApp\app\src\main\AndroidManifest.xml:2:11-69
	android:versionCode
		INJECTED from D:\AndroidProjects\DomoApp\app\src\main\AndroidManifest.xml
		INJECTED from D:\AndroidProjects\DomoApp\app\src\main\AndroidManifest.xml
uses-permission#android.permission.INTERNET
ADDED from D:\AndroidProjects\DomoApp\app\src\main\AndroidManifest.xml:5:5-67
	android:name
		ADDED from D:\AndroidProjects\DomoApp\app\src\main\AndroidManifest.xml:5:22-64
uses-permission#android.permission.ACCESS_NETWORK_STATE
ADDED from D:\AndroidProjects\DomoApp\app\src\main\AndroidManifest.xml:6:5-79
	android:name
		ADDED from D:\AndroidProjects\DomoApp\app\src\main\AndroidManifest.xml:6:22-76
application
ADDED from D:\AndroidProjects\DomoApp\app\src\main\AndroidManifest.xml:8:5-39:19
MERGED from [com.android.support:appcompat-v7:26.0.0-alpha1] D:\.android\.android\build-cache\00a9807e06fc578f21c9d56f1867b382f1e55fb3\output\AndroidManifest.xml:29:5-20
MERGED from [com.android.support:support-v4:26.0.0-alpha1] D:\.android\.android\build-cache\dd7917b4652bd3d7f48843a047cf7e2ddfa7a626\output\AndroidManifest.xml:29:5-20
MERGED from [com.android.support:support-media-compat:26.0.0-alpha1] D:\.android\.android\build-cache\28a2d6cc6f7738e2c53a32ebc640406c1a977c9d\output\AndroidManifest.xml:29:5-20
MERGED from [com.android.support:support-fragment:26.0.0-alpha1] D:\.android\.android\build-cache\f138f20b9106028e34bb4039eb2cf1a272751553\output\AndroidManifest.xml:29:5-20
MERGED from [com.android.support:support-core-ui:26.0.0-alpha1] D:\.android\.android\build-cache\2e25c40791d955b713bda5f749c318a9bf6b9832\output\AndroidManifest.xml:29:5-20
MERGED from [com.android.support:support-core-utils:26.0.0-alpha1] D:\.android\.android\build-cache\25ab4385973cd4cf01b19e65c54ad852723e9943\output\AndroidManifest.xml:29:5-20
MERGED from [com.android.support:animated-vector-drawable:26.0.0-alpha1] D:\.android\.android\build-cache\88f859c756740501fe3be0a4b0cfaf6067014228\output\AndroidManifest.xml:26:5-20
MERGED from [com.android.support:support-vector-drawable:26.0.0-alpha1] D:\.android\.android\build-cache\6ea1bc1f98a4d6c1703d141238c65418a32da5da\output\AndroidManifest.xml:26:5-20
MERGED from [com.android.support:support-compat:26.0.0-alpha1] D:\.android\.android\build-cache\a6a41ad343e74d5ec72f531d107bd961f52ea446\output\AndroidManifest.xml:29:5-20
MERGED from [com.android.support.constraint:constraint-layout:1.0.2] D:\.android\.android\build-cache\348da4c813ba9d08f0908f12bdd40548f344fb3d\output\AndroidManifest.xml:9:5-20
	android:label
		ADDED from D:\AndroidProjects\DomoApp\app\src\main\AndroidManifest.xml:11:9-41
	android:supportsRtl
		ADDED from D:\AndroidProjects\DomoApp\app\src\main\AndroidManifest.xml:13:9-35
	android:roundIcon
		ADDED from D:\AndroidProjects\DomoApp\app\src\main\AndroidManifest.xml:12:9-54
	android:allowBackup
		ADDED from D:\AndroidProjects\DomoApp\app\src\main\AndroidManifest.xml:9:9-35
	android:icon
		ADDED from D:\AndroidProjects\DomoApp\app\src\main\AndroidManifest.xml:10:9-43
	android:theme
		ADDED from D:\AndroidProjects\DomoApp\app\src\main\AndroidManifest.xml:14:9-40
activity#net.jc_mouse.domapp.LoginActivity
ADDED from D:\AndroidProjects\DomoApp\app\src\main\AndroidManifest.xml:16:9-24:20
	android:screenOrientation
		ADDED from D:\AndroidProjects\DomoApp\app\src\main\AndroidManifest.xml:18:13-49
	android:name
		ADDED from D:\AndroidProjects\DomoApp\app\src\main\AndroidManifest.xml:17:13-42
intent-filter#android.intent.action.MAIN+android.intent.category.LAUNCHER
ADDED from D:\AndroidProjects\DomoApp\app\src\main\AndroidManifest.xml:19:13-23:29
action#android.intent.action.MAIN
ADDED from D:\AndroidProjects\DomoApp\app\src\main\AndroidManifest.xml:20:17-69
	android:name
		ADDED from D:\AndroidProjects\DomoApp\app\src\main\AndroidManifest.xml:20:25-66
category#android.intent.category.LAUNCHER
ADDED from D:\AndroidProjects\DomoApp\app\src\main\AndroidManifest.xml:22:17-77
	android:name
		ADDED from D:\AndroidProjects\DomoApp\app\src\main\AndroidManifest.xml:22:27-74
activity#net.jc_mouse.domapp.MainActivity
ADDED from D:\AndroidProjects\DomoApp\app\src\main\AndroidManifest.xml:25:9-28:52
	android:screenOrientation
		ADDED from D:\AndroidProjects\DomoApp\app\src\main\AndroidManifest.xml:28:13-49
	android:label
		ADDED from D:\AndroidProjects\DomoApp\app\src\main\AndroidManifest.xml:27:13-36
	android:name
		ADDED from D:\AndroidProjects\DomoApp\app\src\main\AndroidManifest.xml:26:13-41
activity#net.jc_mouse.domapp.LucesActivity
ADDED from D:\AndroidProjects\DomoApp\app\src\main\AndroidManifest.xml:29:9-32:52
	android:screenOrientation
		ADDED from D:\AndroidProjects\DomoApp\app\src\main\AndroidManifest.xml:32:13-49
	android:label
		ADDED from D:\AndroidProjects\DomoApp\app\src\main\AndroidManifest.xml:31:13-39
	android:name
		ADDED from D:\AndroidProjects\DomoApp\app\src\main\AndroidManifest.xml:30:13-42
activity#net.jc_mouse.domapp.LogsActivity
ADDED from D:\AndroidProjects\DomoApp\app\src\main\AndroidManifest.xml:33:9-36:52
	android:screenOrientation
		ADDED from D:\AndroidProjects\DomoApp\app\src\main\AndroidManifest.xml:36:13-49
	android:label
		ADDED from D:\AndroidProjects\DomoApp\app\src\main\AndroidManifest.xml:35:13-38
	android:name
		ADDED from D:\AndroidProjects\DomoApp\app\src\main\AndroidManifest.xml:34:13-41
activity#net.jc_mouse.domapp.ConfiguracionActivity
ADDED from D:\AndroidProjects\DomoApp\app\src\main\AndroidManifest.xml:37:9-59
	android:name
		ADDED from D:\AndroidProjects\DomoApp\app\src\main\AndroidManifest.xml:37:19-56
activity#net.jc_mouse.domapp.Sensores
ADDED from D:\AndroidProjects\DomoApp\app\src\main\AndroidManifest.xml:38:9-55
	android:name
		ADDED from D:\AndroidProjects\DomoApp\app\src\main\AndroidManifest.xml:38:19-43
uses-sdk
INJECTED from D:\AndroidProjects\DomoApp\app\src\main\AndroidManifest.xml reason: use-sdk injection requested
MERGED from [com.android.support:appcompat-v7:26.0.0-alpha1] D:\.android\.android\build-cache\00a9807e06fc578f21c9d56f1867b382f1e55fb3\output\AndroidManifest.xml:21:5-23:78
MERGED from [com.android.support:support-v4:26.0.0-alpha1] D:\.android\.android\build-cache\dd7917b4652bd3d7f48843a047cf7e2ddfa7a626\output\AndroidManifest.xml:21:5-23:54
MERGED from [com.android.support:support-media-compat:26.0.0-alpha1] D:\.android\.android\build-cache\28a2d6cc6f7738e2c53a32ebc640406c1a977c9d\output\AndroidManifest.xml:21:5-23:63
MERGED from [com.android.support:support-fragment:26.0.0-alpha1] D:\.android\.android\build-cache\f138f20b9106028e34bb4039eb2cf1a272751553\output\AndroidManifest.xml:21:5-23:60
MERGED from [com.android.support:support-core-ui:26.0.0-alpha1] D:\.android\.android\build-cache\2e25c40791d955b713bda5f749c318a9bf6b9832\output\AndroidManifest.xml:21:5-23:58
MERGED from [com.android.support:support-core-utils:26.0.0-alpha1] D:\.android\.android\build-cache\25ab4385973cd4cf01b19e65c54ad852723e9943\output\AndroidManifest.xml:21:5-23:61
MERGED from [com.android.support:animated-vector-drawable:26.0.0-alpha1] D:\.android\.android\build-cache\88f859c756740501fe3be0a4b0cfaf6067014228\output\AndroidManifest.xml:20:5-44
MERGED from [com.android.support:support-vector-drawable:26.0.0-alpha1] D:\.android\.android\build-cache\6ea1bc1f98a4d6c1703d141238c65418a32da5da\output\AndroidManifest.xml:20:5-44
MERGED from [com.android.support:support-compat:26.0.0-alpha1] D:\.android\.android\build-cache\a6a41ad343e74d5ec72f531d107bd961f52ea446\output\AndroidManifest.xml:21:5-23:58
MERGED from [com.android.support.constraint:constraint-layout:1.0.2] D:\.android\.android\build-cache\348da4c813ba9d08f0908f12bdd40548f344fb3d\output\AndroidManifest.xml:5:5-7:41
	tools:overrideLibrary
		ADDED from [com.android.support:appcompat-v7:26.0.0-alpha1] D:\.android\.android\build-cache\00a9807e06fc578f21c9d56f1867b382f1e55fb3\output\AndroidManifest.xml:23:9-75
	android:targetSdkVersion
		INJECTED from D:\AndroidProjects\DomoApp\app\src\main\AndroidManifest.xml
		INJECTED from D:\AndroidProjects\DomoApp\app\src\main\AndroidManifest.xml
	android:minSdkVersion
		INJECTED from D:\AndroidProjects\DomoApp\app\src\main\AndroidManifest.xml
		INJECTED from D:\AndroidProjects\DomoApp\app\src\main\AndroidManifest.xml
meta-data#android.support.VERSION
ADDED from [com.android.support:appcompat-v7:26.0.0-alpha1] D:\.android\.android\build-cache\00a9807e06fc578f21c9d56f1867b382f1e55fb3\output\AndroidManifest.xml:25:5-27:41
MERGED from [com.android.support:support-v4:26.0.0-alpha1] D:\.android\.android\build-cache\dd7917b4652bd3d7f48843a047cf7e2ddfa7a626\output\AndroidManifest.xml:25:5-27:41
MERGED from [com.android.support:support-media-compat:26.0.0-alpha1] D:\.android\.android\build-cache\28a2d6cc6f7738e2c53a32ebc640406c1a977c9d\output\AndroidManifest.xml:25:5-27:41
MERGED from [com.android.support:support-fragment:26.0.0-alpha1] D:\.android\.android\build-cache\f138f20b9106028e34bb4039eb2cf1a272751553\output\AndroidManifest.xml:25:5-27:41
MERGED from [com.android.support:support-core-ui:26.0.0-alpha1] D:\.android\.android\build-cache\2e25c40791d955b713bda5f749c318a9bf6b9832\output\AndroidManifest.xml:25:5-27:41
MERGED from [com.android.support:support-core-utils:26.0.0-alpha1] D:\.android\.android\build-cache\25ab4385973cd4cf01b19e65c54ad852723e9943\output\AndroidManifest.xml:25:5-27:41
MERGED from [com.android.support:animated-vector-drawable:26.0.0-alpha1] D:\.android\.android\build-cache\88f859c756740501fe3be0a4b0cfaf6067014228\output\AndroidManifest.xml:22:5-24:41
MERGED from [com.android.support:support-vector-drawable:26.0.0-alpha1] D:\.android\.android\build-cache\6ea1bc1f98a4d6c1703d141238c65418a32da5da\output\AndroidManifest.xml:22:5-24:41
MERGED from [com.android.support:support-compat:26.0.0-alpha1] D:\.android\.android\build-cache\a6a41ad343e74d5ec72f531d107bd961f52ea446\output\AndroidManifest.xml:25:5-27:41
	android:value
		ADDED from [com.android.support:appcompat-v7:26.0.0-alpha1] D:\.android\.android\build-cache\00a9807e06fc578f21c9d56f1867b382f1e55fb3\output\AndroidManifest.xml:27:9-38
	android:name
		ADDED from [com.android.support:appcompat-v7:26.0.0-alpha1] D:\.android\.android\build-cache\00a9807e06fc578f21c9d56f1867b382f1e55fb3\output\AndroidManifest.xml:26:9-47
